%YAML 1.1
%TAG !u! tag:unity3d.com,2011:
--- !u!114 &11400000
MonoBehaviour:
  m_ObjectHideFlags: 0
  m_CorrespondingSourceObject: {fileID: 0}
  m_PrefabInstance: {fileID: 0}
  m_PrefabAsset: {fileID: 0}
  m_GameObject: {fileID: 0}
  m_Enabled: 1
  m_EditorHideFlags: 0
  m_Script: {fileID: 11500000, guid: 12169eff9bff3454eabe95d7a869f298, type: 3}
  m_Name: Level Config
  m_EditorClassIdentifier: 
  doorSize: 1
  roomSize: 3
  maxRooms: 20
  exits: 4
  maxConnectionsPerRoom: 3
